x20cm_y50cm_z70cm
run	_1-20f
walk	_21-60f
wait	_61-90f
sit	_91-120f
attack	_121-145f
attack2	_146-170f
attack3	_171-190f
jump	_191-220f
shrink	_221-240f
dead	_241-270f
back	_271-315f
howl	_316-375f
flip	_375-395f
ramp	_396_425f
swordoff	_426_470f
Shiro_0.12
Shiro_tecture_01.png
kuro_tecture_01.png
